[gd_scene load_steps=3 format=2]

[ext_resource path="res://scenes/misc/connector.tscn" type="PackedScene" id=1]

[sub_resource type="RectangleShape2D" id=1]
extents = Vector2( 10, 2 )

[node name="vine_end_right_area" type="Area2D"]

[node name="CollisionShape2D" type="CollisionShape2D" parent="."]
position = Vector2( -15, -1 )
shape = SubResource( 1 )

[node name="E" parent="." instance=ExtResource( 1 )]
position = Vector2( -5, -1 )
CONNECTION_DIR = Vector2( 1, 0 )

[node name="W" parent="." instance=ExtResource( 1 )]
position = Vector2( -25, -1 )
CONNECTION_DIR = Vector2( -1, 0 )

[node name="debug" type="Node2D" parent="."]
visible = false

[node name="rect1" type="ColorRect" parent="debug"]
margin_left = -25.0
margin_top = -3.0
margin_right = -5.0
margin_bottom = 1.0
color = Color( 1, 1, 1, 0.501961 )

[node name="rect2" type="ColorRect" parent="debug"]
margin_left = -7.0
margin_top = -3.0
margin_right = -3.0
margin_bottom = 1.0
color = Color( 0, 0, 0, 0.501961 )

[node name="rect3" type="ColorRect" parent="debug"]
margin_left = -27.0
margin_top = -3.0
margin_right = -23.0
margin_bottom = 1.0
color = Color( 0, 0, 0, 0.501961 )
