[gd_resource type="Animation" format=2]

[resource]
resource_name = "lit_unsupported_gate_open"
length = 0.7
tracks/0/type = "value"
tracks/0/path = NodePath(".:region_rect")
tracks/0/interp = 1
tracks/0/loop_wrap = true
tracks/0/imported = false
tracks/0/enabled = true
tracks/0/keys = {
"times": PoolRealArray( 0, 0.1, 0.2, 0.3, 0.4, 0.5, 0.6 ),
"transitions": PoolRealArray( 1, 1, 1, 1, 1, 1, 1 ),
"update": 1,
"values": [ Rect2( 293, 213, 50, 50 ), Rect2( 344, 213, 50, 50 ), Rect2( 395, 213, 50, 50 ), Rect2( 446, 213, 50, 50 ), Rect2( 497, 213, 50, 50 ), Rect2( 548, 213, 50, 50 ), Rect2( 599, 213, 50, 50 ) ]
}
