[gd_scene load_steps=3 format=2]

[ext_resource path="res://assets/sprites/miscobjects.png" type="Texture" id=1]
[ext_resource path="res://scenes/stage_objects/detection_areas/circle_item_area.tscn" type="PackedScene" id=2]

[node name="green_c_circle_item" type="Sprite" groups=[
"item",
]]
texture = ExtResource( 1 )
region_enabled = true
region_rect = Rect2( 150, 270, 19, 19 )

[node name="circle_item_area" type="Area2D" parent="." instance=ExtResource( 2 )]
