[gd_scene load_steps=3 format=2]

[ext_resource path="res://assets/sprites/miscobjects.png" type="Texture" id=1]
[ext_resource path="res://scenes/stage_objects/detection_areas/rect_item_area.tscn" type="PackedScene" id=2]

[node name="lightgreen_rect_item" type="Sprite" groups=[
"item",
]]
editor/display_folded = true
texture = ExtResource( 1 )
region_enabled = true
region_rect = Rect2( 151, 157, 18, 15 )

[node name="rect_item_area" type="Area2D" parent="." instance=ExtResource( 2 )]
