[gd_scene load_steps=4 format=2]

[ext_resource path="res://assets/sprites/miscobjects.png" type="Texture" id=1]
[ext_resource path="res://scenes/stage_objects/animations/unlit_unsupported_gate_open.tres" type="Animation" id=2]
[ext_resource path="res://scenes/stage_objects/detection_areas/gate_area.tscn" type="PackedScene" id=3]

[node name="unlit_unsupported_gate" type="Sprite" groups=[
"gate",
]]
texture = ExtResource( 1 )
region_enabled = true
region_rect = Rect2( 293, 158, 50, 50 )

[node name="AnimationPlayer" type="AnimationPlayer" parent="."]
anims/unlit_unsupported_gate_open = ExtResource( 2 )

[node name="gate_area" parent="." instance=ExtResource( 3 )]
