[gd_resource type="Animation" format=2]

[resource]
resource_name = "kneel_l"
tracks/0/type = "value"
tracks/0/path = NodePath("Sprite:region_rect")
tracks/0/interp = 1
tracks/0/loop_wrap = true
tracks/0/imported = false
tracks/0/enabled = true
tracks/0/keys = {
"times": PoolRealArray( 0 ),
"transitions": PoolRealArray( 1 ),
"update": 0,
"values": [ Rect2( 75, 200, 50, 50 ) ]
}
