[gd_scene load_steps=2 format=2]

[ext_resource path="res://assets/sprites/goodwoodstiles.png" type="Texture" id=1]


[node name="grass_light_short" type="Sprite" groups=[
"background",
]]
texture = ExtResource( 1 )
region_enabled = true
region_rect = Rect2( 224, 1004, 13, 10 )
